module gitlab.com/kennethdashensheridan/hedera-hashgraph-trialrun

go 1.17

require (
	github.com/hashgraph/hedera-sdk-go/v2 v2.7.0
	github.com/joho/godotenv v1.4.0
)

require (
	github.com/btcsuite/btcd v0.20.1-beta // indirect
	github.com/ethereum/go-ethereum v1.10.13 // indirect
	github.com/golang/protobuf v1.5.2 // indirect
	github.com/hashgraph/hedera-protobufs-go v0.2.1-0.20211228072109-84b5087d2be4 // indirect
	github.com/pkg/errors v0.9.1 // indirect
	github.com/tyler-smith/go-bip39 v1.1.0 // indirect
	github.com/youmark/pkcs8 v0.0.0-20201027041543-1326539a0a0a // indirect
	golang.org/x/crypto v0.0.0-20210817164053-32db794688a5 // indirect
	golang.org/x/net v0.0.0-20210907225631-ff17edfbf26d // indirect
	golang.org/x/sys v0.0.0-20210906170528-6f6e22806c34 // indirect
	golang.org/x/text v0.3.7 // indirect
	google.golang.org/genproto v0.0.0-20200526211855-cb27e3aa2013 // indirect
	google.golang.org/grpc v1.43.0 // indirect
	google.golang.org/protobuf v1.26.1-0.20210525005349-febffdd88e85 // indirect
)
